%!PS-Adobe-3.0 EPSF-3.0
%%HiResBoundingBox: 0 0 213.6 214.56
%%BoundingBox: 0 0 214 215
%%Creator: Serif Affinity
%LanguageLevel: 3
%%DocumentData: Clean7Bit
%%EndComments
%%BeginProlog
101 dict begin
/m/moveto
/l/lineto
/c/curveto
/sc/setcolor
/scs/setcolorspace
/d/setdash
/w/setlinewidth
/J/setlinecap
/j/setlinejoin
/M/setmiterlimit
/f/fill
/f*/eofill
/S/stroke
/h/closepath
/n/newpath
/q/gsave
/Q/grestore
17{load def}repeat
%%EndProlog
q
/DeviceRGB scs
n
66.24 66.939 m
66.24 66.939 14.16 66.939 14.16 66.939 c
14.16 66.939 14.16 16.843 14.16 16.843 c
14.16 16.843 66.24 16.843 66.24 16.843 c
66.24 16.843 66.24 66.939 66.24 66.939 c
h
1 1 1 sc
f*
n
16.496 60.278 m
16.496 60.534 16.549 60.753 16.656 60.934 c
16.768 61.137 16.936 61.302 17.16 61.43 c
17.48 61.611 17.883 61.702 18.368 61.702 c
18.368 61.702 18.88 61.702 18.88 61.702 c
18.88 61.702 18.88 61.878 18.88 61.878 c
18.88 61.985 18.857 62.079 18.812 62.162 c
18.767 62.245 18.699 62.31 18.608 62.358 c
18.491 62.427 18.347 62.462 18.176 62.462 c
18.005 62.462 17.861 62.43 17.744 62.366 c
17.653 62.313 17.579 62.238 17.52 62.142 c
17.488 62.083 17.467 62.025 17.456 61.966 c
17.456 61.966 16.544 62.222 16.544 62.222 c
16.571 62.35 16.619 62.473 16.688 62.59 c
16.811 62.803 16.979 62.971 17.192 63.094 c
17.459 63.249 17.787 63.326 18.176 63.326 c
18.565 63.326 18.896 63.249 19.168 63.094 c
19.381 62.971 19.547 62.807 19.664 62.602 c
19.781 62.397 19.84 62.155 19.84 61.878 c
19.84 61.878 19.84 59.022 19.84 59.022 c
19.84 59.022 18.88 59.022 18.88 59.022 c
18.88 59.022 18.88 59.526 18.88 59.526 c
18.763 59.361 18.621 59.23 18.456 59.134 c
18.259 59.017 18.028 58.958 17.764 58.958 c
17.5 58.958 17.275 59.011 17.088 59.118 c
16.917 59.219 16.781 59.358 16.68 59.534 c
16.557 59.742 16.496 59.99 16.496 60.278 c
h
17.456 60.286 m
17.456 60.169 17.496 60.073 17.576 59.998 c
17.688 59.881 17.861 59.822 18.096 59.822 c
18.261 59.822 18.405 59.857 18.528 59.926 c
18.635 59.99 18.717 60.073 18.776 60.174 c
18.845 60.297 18.88 60.441 18.88 60.606 c
18.88 60.606 18.88 60.838 18.88 60.838 c
18.88 60.838 18.368 60.838 18.368 60.838 c
18.096 60.838 17.88 60.793 17.72 60.702 c
17.624 60.649 17.555 60.582 17.512 60.502 c
17.475 60.443 17.456 60.371 17.456 60.286 c
h
0 0 0 sc
f
n
20.56 63.262 m
20.56 63.262 21.52 63.262 21.52 63.262 c
21.52 63.262 21.52 62.734 21.52 62.734 c
21.643 62.931 21.792 63.081 21.968 63.182 c
22.128 63.278 22.32 63.326 22.544 63.326 c
22.773 63.326 22.979 63.275 23.16 63.174 c
23.352 63.062 23.509 62.897 23.632 62.678 c
23.813 62.369 23.904 61.977 23.904 61.502 c
23.904 61.502 23.904 60.782 23.904 60.782 c
23.904 60.307 23.813 59.915 23.632 59.606 c
23.509 59.387 23.352 59.222 23.16 59.11 c
22.979 59.009 22.773 58.958 22.544 58.958 c
22.32 58.958 22.128 59.006 21.968 59.102 c
21.792 59.203 21.643 59.353 21.52 59.55 c
21.52 59.55 21.52 57.382 21.52 57.382 c
21.52 57.382 20.56 57.382 20.56 57.382 c
20.56 57.382 20.56 63.262 20.56 63.262 c
h
21.664 60.142 m
21.728 60.035 21.808 59.953 21.904 59.894 c
21.989 59.846 22.091 59.822 22.208 59.822 c
22.336 59.822 22.448 59.851 22.544 59.91 c
22.645 59.969 22.733 60.057 22.808 60.174 c
22.899 60.339 22.944 60.542 22.944 60.782 c
22.944 60.782 22.944 61.502 22.944 61.502 c
22.944 61.742 22.899 61.945 22.808 62.11 c
22.733 62.227 22.645 62.315 22.544 62.374 c
22.448 62.433 22.336 62.462 22.208 62.462 c
22.091 62.462 21.989 62.438 21.904 62.39 c
21.808 62.331 21.728 62.249 21.664 62.142 c
21.568 61.977 21.52 61.763 21.52 61.502 c
21.52 61.502 21.52 60.782 21.52 60.782 c
21.52 60.521 21.568 60.307 21.664 60.142 c
h
f
n
24.496 60.278 m
24.496 60.534 24.549 60.753 24.656 60.934 c
24.768 61.137 24.936 61.302 25.16 61.43 c
25.48 61.611 25.883 61.702 26.368 61.702 c
26.368 61.702 26.88 61.702 26.88 61.702 c
26.88 61.702 26.88 61.878 26.88 61.878 c
26.88 61.985 26.857 62.079 26.812 62.162 c
26.767 62.245 26.699 62.31 26.608 62.358 c
26.491 62.427 26.347 62.462 26.176 62.462 c
26.005 62.462 25.861 62.43 25.744 62.366 c
25.653 62.313 25.579 62.238 25.52 62.142 c
25.488 62.083 25.467 62.025 25.456 61.966 c
25.456 61.966 24.544 62.222 24.544 62.222 c
24.571 62.35 24.619 62.473 24.688 62.59 c
24.811 62.803 24.979 62.971 25.192 63.094 c
25.459 63.249 25.787 63.326 26.176 63.326 c
26.565 63.326 26.896 63.249 27.168 63.094 c
27.381 62.971 27.547 62.807 27.664 62.602 c
27.781 62.397 27.84 62.155 27.84 61.878 c
27.84 61.878 27.84 59.022 27.84 59.022 c
27.84 59.022 26.88 59.022 26.88 59.022 c
26.88 59.022 26.88 59.526 26.88 59.526 c
26.763 59.361 26.621 59.23 26.456 59.134 c
26.259 59.017 26.028 58.958 25.764 58.958 c
25.5 58.958 25.275 59.011 25.088 59.118 c
24.917 59.219 24.781 59.358 24.68 59.534 c
24.557 59.742 24.496 59.99 24.496 60.278 c
h
25.456 60.286 m
25.456 60.169 25.496 60.073 25.576 59.998 c
25.688 59.881 25.861 59.822 26.096 59.822 c
26.261 59.822 26.405 59.857 26.528 59.926 c
26.635 59.99 26.717 60.073 26.776 60.174 c
26.845 60.297 26.88 60.441 26.88 60.606 c
26.88 60.606 26.88 60.838 26.88 60.838 c
26.88 60.838 26.368 60.838 26.368 60.838 c
26.096 60.838 25.88 60.793 25.72 60.702 c
25.624 60.649 25.555 60.582 25.512 60.502 c
25.475 60.443 25.456 60.371 25.456 60.286 c
h
f
n
28.496 60.782 m
28.496 60.782 28.496 61.502 28.496 61.502 c
28.496 61.907 28.579 62.254 28.744 62.542 c
28.883 62.782 29.069 62.969 29.304 63.102 c
29.56 63.251 29.864 63.326 30.216 63.326 c
30.568 63.326 30.869 63.251 31.12 63.102 c
31.355 62.969 31.541 62.782 31.68 62.542 c
31.776 62.382 31.843 62.209 31.88 62.022 c
31.88 62.022 30.96 61.774 30.96 61.774 c
30.939 61.897 30.899 62.006 30.84 62.102 c
30.776 62.219 30.688 62.31 30.576 62.374 c
30.475 62.433 30.355 62.462 30.216 62.462 c
30.077 62.462 29.956 62.433 29.852 62.374 c
29.748 62.315 29.661 62.227 29.592 62.11 c
29.501 61.945 29.456 61.742 29.456 61.502 c
29.456 61.502 29.456 60.782 29.456 60.782 c
29.456 60.542 29.501 60.339 29.592 60.174 c
29.661 60.057 29.748 59.969 29.852 59.91 c
29.956 59.851 30.077 59.822 30.216 59.822 c
30.355 59.822 30.475 59.851 30.576 59.91 c
30.688 59.974 30.776 60.065 30.84 60.182 c
30.899 60.278 30.939 60.387 30.96 60.51 c
30.96 60.51 31.88 60.262 31.88 60.262 c
31.843 60.075 31.776 59.902 31.68 59.742 c
31.541 59.502 31.355 59.315 31.12 59.182 c
30.869 59.033 30.568 58.958 30.216 58.958 c
29.864 58.958 29.56 59.033 29.304 59.182 c
29.069 59.315 28.883 59.502 28.744 59.742 c
28.579 60.03 28.496 60.377 28.496 60.782 c
h
f
n
32.56 64.902 m
32.56 64.902 33.52 64.902 33.52 64.902 c
33.52 64.902 33.52 62.734 33.52 62.734 c
33.643 62.931 33.792 63.081 33.968 63.182 c
34.128 63.278 34.317 63.326 34.536 63.326 c
34.755 63.326 34.947 63.278 35.112 63.182 c
35.293 63.075 35.445 62.918 35.568 62.71 c
35.749 62.395 35.84 61.993 35.84 61.502 c
35.84 61.502 35.84 59.022 35.84 59.022 c
35.84 59.022 34.88 59.022 34.88 59.022 c
34.88 59.022 34.88 61.502 34.88 61.502 c
34.88 61.763 34.832 61.977 34.736 62.142 c
34.672 62.249 34.592 62.331 34.496 62.39 c
34.411 62.438 34.312 62.462 34.2 62.462 c
34.088 62.462 33.989 62.438 33.904 62.39 c
33.808 62.331 33.728 62.249 33.664 62.142 c
33.568 61.977 33.52 61.763 33.52 61.502 c
33.52 61.502 33.52 59.022 33.52 59.022 c
33.52 59.022 32.56 59.022 32.56 59.022 c
32.56 59.022 32.56 64.902 32.56 64.902 c
h
f
n
36.744 62.55 m
36.883 62.79 37.069 62.977 37.304 63.11 c
37.555 63.254 37.853 63.326 38.2 63.326 c
38.547 63.326 38.845 63.254 39.096 63.11 c
39.331 62.977 39.517 62.79 39.656 62.55 c
39.821 62.262 39.904 61.913 39.904 61.502 c
39.904 61.502 39.904 60.71 39.904 60.71 c
39.904 60.71 37.456 60.71 37.456 60.71 c
37.467 60.507 37.512 60.337 37.592 60.198 c
37.661 60.075 37.752 59.982 37.864 59.918 c
37.976 59.854 38.107 59.822 38.256 59.822 c
38.416 59.822 38.555 59.857 38.672 59.926 c
38.784 59.99 38.875 60.081 38.944 60.198 c
38.976 60.262 39.003 60.326 39.024 60.39 c
39.024 60.39 39.912 60.062 39.912 60.062 c
39.875 59.955 39.829 59.854 39.776 59.758 c
39.637 59.518 39.448 59.329 39.208 59.19 c
38.941 59.035 38.624 58.958 38.256 58.958 c
37.888 58.958 37.573 59.035 37.312 59.19 c
37.072 59.329 36.883 59.518 36.744 59.758 c
36.579 60.041 36.496 60.382 36.496 60.782 c
36.496 60.782 36.496 61.502 36.496 61.502 c
36.496 61.913 36.579 62.262 36.744 62.55 c
h
38.944 61.574 m
38.933 61.787 38.888 61.966 38.808 62.11 c
38.733 62.227 38.645 62.315 38.544 62.374 c
38.448 62.433 38.333 62.462 38.2 62.462 c
38.067 62.462 37.952 62.433 37.856 62.374 c
37.755 62.315 37.667 62.227 37.592 62.11 c
37.512 61.966 37.467 61.787 37.456 61.574 c
37.456 61.574 38.944 61.574 38.944 61.574 c
h
f
n
22.736 53.411 m
22.736 53.411 17.936 53.411 17.936 53.411 c
17.936 53.411 17.936 48.611 17.936 48.611 c
17.936 48.611 22.736 48.611 22.736 48.611 c
22.736 48.611 22.736 53.411 22.736 53.411 c
h
1 w
1 J
1.414 setmiterlimit
S
n
29.456 35.171 m
29.456 35.171 24.656 35.171 24.656 35.171 c
24.656 35.171 24.656 30.371 24.656 30.371 c
24.656 30.371 29.456 30.371 29.456 30.371 c
29.456 30.371 29.456 35.171 29.456 35.171 c
h
S
n
29.216 43.702 m
29.216 43.702 24.416 43.702 24.416 43.702 c
24.416 43.702 24.416 38.902 24.416 38.902 c
24.416 38.902 29.216 38.902 29.216 38.902 c
29.216 38.902 29.216 43.702 29.216 43.702 c
h
S
n
20.336 48.611 m
20.336 48.611 20.336 32.291 20.336 32.291 c
20.336 32.291 24.656 32.291 24.656 32.291 c
S
n
24.416 41.302 m
24.416 41.302 20.336 41.302 20.336 41.302 c
S
n
66.24 66.939 m
66.24 66.939 14.16 66.939 14.16 66.939 c
14.16 66.939 14.16 16.843 14.16 16.843 c
14.16 16.843 66.24 16.843 66.24 16.843 c
66.24 16.843 66.24 66.939 66.24 66.939 c
h
2 w
S
n
205.393 205.319 m
205.393 205.319 153.313 205.319 153.313 205.319 c
153.313 205.319 153.313 155.223 153.313 155.223 c
153.313 155.223 205.393 155.223 205.393 155.223 c
205.393 155.223 205.393 205.319 205.393 205.319 c
h
1 1 1 sc
f*
n
155.713 201.642 m
155.713 201.642 156.673 201.642 156.673 201.642 c
156.673 201.642 156.673 201.114 156.673 201.114 c
156.796 201.311 156.945 201.461 157.121 201.562 c
157.281 201.658 157.473 201.706 157.697 201.706 c
157.927 201.706 158.132 201.655 158.313 201.554 c
158.505 201.442 158.663 201.277 158.785 201.058 c
158.967 200.749 159.057 200.357 159.057 199.882 c
159.057 199.882 159.057 199.162 159.057 199.162 c
159.057 198.687 158.967 198.295 158.785 197.986 c
158.663 197.767 158.505 197.602 158.313 197.49 c
158.132 197.389 157.927 197.338 157.697 197.338 c
157.473 197.338 157.281 197.386 157.121 197.482 c
156.945 197.583 156.796 197.733 156.673 197.93 c
156.673 197.93 156.673 195.762 156.673 195.762 c
156.673 195.762 155.713 195.762 155.713 195.762 c
155.713 195.762 155.713 201.642 155.713 201.642 c
h
156.817 198.522 m
156.881 198.415 156.961 198.333 157.057 198.274 c
157.143 198.226 157.244 198.202 157.361 198.202 c
157.489 198.202 157.601 198.231 157.697 198.29 c
157.799 198.349 157.887 198.437 157.961 198.554 c
158.052 198.719 158.097 198.922 158.097 199.162 c
158.097 199.162 158.097 199.882 158.097 199.882 c
158.097 200.122 158.052 200.325 157.961 200.49 c
157.887 200.607 157.799 200.695 157.697 200.754 c
157.601 200.813 157.489 200.842 157.361 200.842 c
157.244 200.842 157.143 200.818 157.057 200.77 c
156.961 200.711 156.881 200.629 156.817 200.522 c
156.721 200.357 156.673 200.143 156.673 199.882 c
156.673 199.882 156.673 199.162 156.673 199.162 c
156.673 198.901 156.721 198.687 156.817 198.522 c
h
0 0 0 sc
f
n
160.113 201.642 m
160.113 201.642 161.073 201.642 161.073 201.642 c
161.073 201.642 161.073 200.898 161.073 200.898 c
161.105 200.973 161.14 201.042 161.177 201.106 c
161.3 201.319 161.449 201.477 161.625 201.578 c
161.769 201.663 161.937 201.706 162.129 201.706 c
162.327 201.706 162.509 201.657 162.677 201.558 c
162.845 201.459 162.98 201.322 163.081 201.146 c
163.129 201.061 163.167 200.973 163.193 200.882 c
163.193 200.882 162.297 200.458 162.297 200.458 c
162.265 200.549 162.217 200.629 162.153 200.698 c
162.057 200.794 161.937 200.842 161.793 200.842 c
161.687 200.842 161.593 200.818 161.513 200.77 c
161.412 200.711 161.327 200.621 161.257 200.498 c
161.135 200.285 161.073 200.002 161.073 199.65 c
161.073 199.65 161.073 197.402 161.073 197.402 c
161.073 197.402 160.113 197.402 160.113 197.402 c
160.113 197.402 160.113 201.642 160.113 201.642 c
h
f
n
163.897 200.93 m
164.036 201.17 164.223 201.357 164.457 201.49 c
164.708 201.634 165.007 201.706 165.353 201.706 c
165.7 201.706 165.999 201.634 166.249 201.49 c
166.484 201.357 166.671 201.17 166.809 200.93 c
166.975 200.642 167.057 200.293 167.057 199.882 c
167.057 199.882 167.057 199.162 167.057 199.162 c
167.057 198.751 166.975 198.402 166.809 198.114 c
166.671 197.874 166.484 197.687 166.249 197.554 c
165.999 197.41 165.7 197.338 165.353 197.338 c
165.007 197.338 164.708 197.41 164.457 197.554 c
164.223 197.687 164.036 197.874 163.897 198.114 c
163.732 198.402 163.649 198.751 163.649 199.162 c
163.649 199.162 163.649 199.882 163.649 199.882 c
163.649 200.293 163.732 200.642 163.897 200.93 c
h
164.745 198.554 m
164.82 198.437 164.908 198.349 165.009 198.29 c
165.105 198.231 165.22 198.202 165.353 198.202 c
165.487 198.202 165.601 198.231 165.697 198.29 c
165.799 198.349 165.887 198.437 165.961 198.554 c
166.052 198.719 166.097 198.922 166.097 199.162 c
166.097 199.162 166.097 199.882 166.097 199.882 c
166.097 200.122 166.052 200.325 165.961 200.49 c
165.887 200.607 165.799 200.695 165.697 200.754 c
165.601 200.813 165.487 200.842 165.353 200.842 c
165.22 200.842 165.105 200.813 165.009 200.754 c
164.908 200.695 164.82 200.607 164.745 200.49 c
164.655 200.325 164.609 200.122 164.609 199.882 c
164.609 199.882 164.609 199.162 164.609 199.162 c
164.609 198.922 164.655 198.719 164.745 198.554 c
h
f
n
167.649 201.642 m
167.649 201.642 168.505 201.642 168.505 201.642 c
168.505 201.642 168.505 201.402 168.505 201.402 c
168.569 201.503 168.647 201.581 168.737 201.634 c
168.823 201.682 168.917 201.706 169.021 201.706 c
169.125 201.706 169.223 201.682 169.313 201.634 c
169.42 201.57 169.508 201.474 169.577 201.346 c
169.609 201.293 169.639 201.231 169.665 201.162 c
169.692 201.237 169.721 201.303 169.753 201.362 c
169.828 201.49 169.916 201.581 170.017 201.634 c
170.097 201.682 170.191 201.706 170.297 201.706 c
170.404 201.706 170.5 201.682 170.585 201.634 c
170.692 201.57 170.783 201.474 170.857 201.346 c
170.991 201.111 171.057 200.799 171.057 200.41 c
171.057 200.41 171.057 197.402 171.057 197.402 c
171.057 197.402 170.201 197.402 170.201 197.402 c
170.201 197.402 170.201 200.41 170.201 200.41 c
170.201 200.655 170.161 200.818 170.081 200.898 c
170.055 200.925 170.025 200.938 169.993 200.938 c
169.961 200.938 169.929 200.925 169.897 200.898 c
169.817 200.813 169.78 200.65 169.785 200.41 c
169.785 200.41 169.785 197.402 169.785 197.402 c
169.785 197.402 168.921 197.402 168.921 197.402 c
168.921 197.402 168.921 200.41 168.921 200.41 c
168.927 200.65 168.889 200.813 168.809 200.898 c
168.777 200.925 168.745 200.938 168.713 200.938 c
168.681 200.938 168.652 200.925 168.625 200.898 c
168.545 200.818 168.505 200.655 168.505 200.41 c
168.505 200.41 168.505 197.402 168.505 197.402 c
168.505 197.402 167.649 197.402 167.649 197.402 c
167.649 197.402 167.649 201.642 167.649 201.642 c
h
f
n
171.897 200.93 m
172.036 201.17 172.223 201.357 172.457 201.49 c
172.708 201.634 173.007 201.706 173.353 201.706 c
173.7 201.706 173.999 201.634 174.249 201.49 c
174.484 201.357 174.671 201.17 174.809 200.93 c
174.975 200.642 175.057 200.293 175.057 199.882 c
175.057 199.882 175.057 199.09 175.057 199.09 c
175.057 199.09 172.609 199.09 172.609 199.09 c
172.62 198.887 172.665 198.717 172.745 198.578 c
172.815 198.455 172.905 198.362 173.017 198.298 c
173.129 198.234 173.26 198.202 173.409 198.202 c
173.569 198.202 173.708 198.237 173.825 198.306 c
173.937 198.37 174.028 198.461 174.097 198.578 c
174.129 198.642 174.156 198.706 174.177 198.77 c
174.177 198.77 175.065 198.442 175.065 198.442 c
175.028 198.335 174.983 198.234 174.929 198.138 c
174.791 197.898 174.601 197.709 174.361 197.57 c
174.095 197.415 173.777 197.338 173.409 197.338 c
173.041 197.338 172.727 197.415 172.465 197.57 c
172.225 197.709 172.036 197.898 171.897 198.138 c
171.732 198.421 171.649 198.762 171.649 199.162 c
171.649 199.162 171.649 199.882 171.649 199.882 c
171.649 200.293 171.732 200.642 171.897 200.93 c
h
174.097 199.954 m
174.087 200.167 174.041 200.346 173.961 200.49 c
173.887 200.607 173.799 200.695 173.697 200.754 c
173.601 200.813 173.487 200.842 173.353 200.842 c
173.22 200.842 173.105 200.813 173.009 200.754 c
172.908 200.695 172.82 200.607 172.745 200.49 c
172.665 200.346 172.62 200.167 172.609 199.954 c
172.609 199.954 174.097 199.954 174.097 199.954 c
h
f
n
175.745 201.642 m
175.745 201.642 176.473 201.642 176.473 201.642 c
176.473 201.642 176.473 203.282 176.473 203.282 c
176.473 203.282 177.433 203.282 177.433 203.282 c
177.433 203.282 177.433 201.642 177.433 201.642 c
177.433 201.642 178.545 201.642 178.545 201.642 c
178.545 201.642 178.545 200.778 178.545 200.778 c
178.545 200.778 177.433 200.778 177.433 200.778 c
177.433 200.778 177.433 199.122 177.433 199.122 c
177.433 198.834 177.481 198.607 177.577 198.442 c
177.625 198.357 177.684 198.293 177.753 198.25 c
177.812 198.218 177.877 198.202 177.949 198.202 c
178.021 198.202 178.084 198.218 178.137 198.25 c
178.207 198.293 178.271 198.359 178.329 198.45 c
178.399 198.578 178.444 198.73 178.465 198.906 c
178.465 198.906 179.377 198.642 179.377 198.642 c
179.34 198.418 179.268 198.213 179.161 198.026 c
179.033 197.802 178.867 197.631 178.661 197.514 c
178.456 197.397 178.216 197.338 177.941 197.338 c
177.667 197.338 177.431 197.397 177.233 197.514 c
177.025 197.631 176.857 197.802 176.729 198.026 c
176.559 198.319 176.473 198.685 176.473 199.122 c
176.473 199.122 176.473 200.778 176.473 200.778 c
176.473 200.778 175.745 200.778 175.745 200.778 c
175.745 200.778 175.745 201.642 175.745 201.642 c
h
f
n
179.713 203.282 m
179.713 203.282 180.673 203.282 180.673 203.282 c
180.673 203.282 180.673 201.114 180.673 201.114 c
180.796 201.311 180.945 201.461 181.121 201.562 c
181.281 201.658 181.471 201.706 181.689 201.706 c
181.908 201.706 182.1 201.658 182.265 201.562 c
182.447 201.455 182.599 201.298 182.721 201.09 c
182.903 200.775 182.993 200.373 182.993 199.882 c
182.993 199.882 182.993 197.402 182.993 197.402 c
182.993 197.402 182.033 197.402 182.033 197.402 c
182.033 197.402 182.033 199.882 182.033 199.882 c
182.033 200.143 181.985 200.357 181.889 200.522 c
181.825 200.629 181.745 200.711 181.649 200.77 c
181.564 200.818 181.465 200.842 181.353 200.842 c
181.241 200.842 181.143 200.818 181.057 200.77 c
180.961 200.711 180.881 200.629 180.817 200.522 c
180.721 200.357 180.673 200.143 180.673 199.882 c
180.673 199.882 180.673 197.402 180.673 197.402 c
180.673 197.402 179.713 197.402 179.713 197.402 c
179.713 197.402 179.713 203.282 179.713 203.282 c
h
f
n
183.897 200.93 m
184.036 201.17 184.223 201.357 184.457 201.49 c
184.708 201.634 185.007 201.706 185.353 201.706 c
185.7 201.706 185.999 201.634 186.249 201.49 c
186.484 201.357 186.671 201.17 186.809 200.93 c
186.975 200.642 187.057 200.293 187.057 199.882 c
187.057 199.882 187.057 199.09 187.057 199.09 c
187.057 199.09 184.609 199.09 184.609 199.09 c
184.62 198.887 184.665 198.717 184.745 198.578 c
184.815 198.455 184.905 198.362 185.017 198.298 c
185.129 198.234 185.26 198.202 185.409 198.202 c
185.569 198.202 185.708 198.237 185.825 198.306 c
185.937 198.37 186.028 198.461 186.097 198.578 c
186.129 198.642 186.156 198.706 186.177 198.77 c
186.177 198.77 187.065 198.442 187.065 198.442 c
187.028 198.335 186.983 198.234 186.929 198.138 c
186.791 197.898 186.601 197.709 186.361 197.57 c
186.095 197.415 185.777 197.338 185.409 197.338 c
185.041 197.338 184.727 197.415 184.465 197.57 c
184.225 197.709 184.036 197.898 183.897 198.138 c
183.732 198.421 183.649 198.762 183.649 199.162 c
183.649 199.162 183.649 199.882 183.649 199.882 c
183.649 200.293 183.732 200.642 183.897 200.93 c
h
186.097 199.954 m
186.087 200.167 186.041 200.346 185.961 200.49 c
185.887 200.607 185.799 200.695 185.697 200.754 c
185.601 200.813 185.487 200.842 185.353 200.842 c
185.22 200.842 185.105 200.813 185.009 200.754 c
184.908 200.695 184.82 200.607 184.745 200.49 c
184.665 200.346 184.62 200.167 184.609 199.954 c
184.609 199.954 186.097 199.954 186.097 199.954 c
h
f
n
187.713 199.162 m
187.713 199.162 187.713 201.642 187.713 201.642 c
187.713 201.642 188.673 201.642 188.673 201.642 c
188.673 201.642 188.673 199.162 188.673 199.162 c
188.673 198.901 188.721 198.687 188.817 198.522 c
188.881 198.415 188.961 198.333 189.057 198.274 c
189.143 198.226 189.241 198.202 189.353 198.202 c
189.465 198.202 189.564 198.226 189.649 198.274 c
189.745 198.333 189.825 198.415 189.889 198.522 c
189.985 198.687 190.033 198.901 190.033 199.162 c
190.033 199.162 190.033 201.642 190.033 201.642 c
190.033 201.642 190.993 201.642 190.993 201.642 c
190.993 201.642 190.993 197.402 190.993 197.402 c
190.993 197.402 190.033 197.402 190.033 197.402 c
190.033 197.402 190.033 197.93 190.033 197.93 c
189.911 197.733 189.761 197.583 189.585 197.482 c
189.425 197.386 189.236 197.338 189.017 197.338 c
188.799 197.338 188.607 197.386 188.441 197.482 c
188.26 197.589 188.108 197.746 187.985 197.954 c
187.804 198.269 187.713 198.671 187.713 199.162 c
h
f
n
192.577 198.61 m
192.609 198.541 192.655 198.477 192.713 198.418 c
192.852 198.274 193.057 198.202 193.329 198.202 c
193.623 198.202 193.831 198.263 193.953 198.386 c
194.012 198.445 194.041 198.514 194.041 198.594 c
194.041 198.658 194.025 198.719 193.993 198.778 c
193.951 198.853 193.887 198.914 193.801 198.962 c
193.684 199.031 193.471 199.079 193.161 199.106 c
192.799 199.138 192.523 199.209 192.333 199.318 c
192.144 199.427 191.993 199.581 191.881 199.778 c
191.764 199.981 191.705 200.205 191.705 200.45 c
191.705 200.669 191.753 200.861 191.849 201.026 c
191.951 201.202 192.1 201.346 192.297 201.458 c
192.585 201.623 192.945 201.706 193.377 201.706 c
193.788 201.706 194.127 201.629 194.393 201.474 c
194.623 201.341 194.801 201.162 194.929 200.938 c
194.961 200.885 194.991 200.826 195.017 200.762 c
195.017 200.762 194.129 200.434 194.129 200.434 c
194.097 200.503 194.052 200.567 193.993 200.626 c
193.855 200.77 193.649 200.842 193.377 200.842 c
193.084 200.842 192.876 200.781 192.753 200.658 c
192.695 200.599 192.665 200.53 192.665 200.45 c
192.665 200.386 192.681 200.325 192.713 200.266 c
192.756 200.191 192.82 200.13 192.905 200.082 c
193.023 200.013 193.236 199.965 193.545 199.938 c
193.908 199.906 194.184 199.835 194.373 199.726 c
194.563 199.617 194.713 199.463 194.825 199.266 c
194.943 199.063 195.001 198.839 195.001 198.594 c
195.001 198.375 194.953 198.183 194.857 198.018 c
194.756 197.842 194.607 197.698 194.409 197.586 c
194.121 197.421 193.761 197.338 193.329 197.338 c
192.919 197.338 192.58 197.415 192.313 197.57 c
192.084 197.703 191.905 197.882 191.777 198.106 c
191.745 198.159 191.716 198.218 191.689 198.282 c
191.689 198.282 192.577 198.61 192.577 198.61 c
h
f
n
205.393 205.319 m
205.393 205.319 153.313 205.319 153.313 205.319 c
153.313 205.319 153.313 155.223 153.313 155.223 c
153.313 155.223 205.393 155.223 205.393 155.223 c
205.393 155.223 205.393 205.319 205.393 205.319 c
h
S
n
133.92 66.939 m
133.92 66.939 81.84 66.939 81.84 66.939 c
81.84 66.939 81.84 16.843 81.84 16.843 c
81.84 16.843 133.92 16.843 133.92 16.843 c
133.92 16.843 133.92 66.939 133.92 66.939 c
h
1 1 1 sc
f*
n
84.24 63.262 m
84.24 63.262 85.2 63.262 85.2 63.262 c
85.2 63.262 85.2 62.734 85.2 62.734 c
85.323 62.931 85.472 63.081 85.648 63.182 c
85.808 63.278 85.997 63.326 86.216 63.326 c
86.435 63.326 86.627 63.278 86.792 63.182 c
86.973 63.075 87.125 62.918 87.248 62.71 c
87.429 62.395 87.52 61.993 87.52 61.502 c
87.52 61.502 87.52 59.022 87.52 59.022 c
87.52 59.022 86.56 59.022 86.56 59.022 c
86.56 59.022 86.56 61.502 86.56 61.502 c
86.56 61.763 86.512 61.977 86.416 62.142 c
86.352 62.249 86.272 62.331 86.176 62.39 c
86.091 62.438 85.992 62.462 85.88 62.462 c
85.768 62.462 85.669 62.438 85.584 62.39 c
85.488 62.331 85.408 62.249 85.344 62.142 c
85.248 61.977 85.2 61.763 85.2 61.502 c
85.2 61.502 85.2 59.022 85.2 59.022 c
85.2 59.022 84.24 59.022 84.24 59.022 c
84.24 59.022 84.24 63.262 84.24 63.262 c
h
0 0 0 sc
f
n
89.032 58.846 m
89.032 58.734 89.061 58.63 89.12 58.534 c
89.173 58.438 89.253 58.358 89.36 58.294 c
89.493 58.219 89.661 58.182 89.864 58.182 c
90.093 58.182 90.28 58.225 90.424 58.31 c
90.515 58.363 90.581 58.427 90.624 58.502 c
90.667 58.566 90.688 58.641 90.688 58.726 c
90.688 58.827 90.656 58.913 90.592 58.982 c
90.48 59.089 90.315 59.142 90.096 59.142 c
90.096 59.142 89.664 59.142 89.664 59.142 c
89.275 59.142 88.981 59.198 88.784 59.31 c
88.635 59.401 88.517 59.518 88.432 59.662 c
88.352 59.806 88.309 59.963 88.304 60.134 c
88.309 60.31 88.357 60.478 88.448 60.638 c
88.485 60.702 88.528 60.761 88.576 60.814 c
88.491 60.899 88.419 60.993 88.36 61.094 c
88.237 61.307 88.176 61.559 88.176 61.85 c
88.176 62.141 88.237 62.393 88.36 62.606 c
88.477 62.809 88.643 62.971 88.856 63.094 c
89.123 63.249 89.445 63.326 89.824 63.326 c
90.027 63.326 90.213 63.305 90.384 63.262 c
90.384 63.262 91.672 63.262 91.672 63.262 c
91.672 63.262 91.672 62.398 91.672 62.398 c
91.672 62.398 91.384 62.406 91.384 62.406 c
91.443 62.241 91.475 62.054 91.48 61.846 c
91.475 61.553 91.411 61.302 91.288 61.094 c
91.176 60.886 91.011 60.721 90.792 60.598 c
90.531 60.449 90.208 60.374 89.824 60.374 c
89.6 60.374 89.397 60.398 89.216 60.446 c
89.179 60.403 89.16 60.353 89.16 60.294 c
89.165 60.225 89.192 60.166 89.24 60.118 c
89.315 60.043 89.453 60.006 89.656 60.006 c
89.656 60.006 90.096 60.006 90.096 60.006 c
90.475 60.006 90.795 59.931 91.056 59.782 c
91.248 59.67 91.395 59.527 91.496 59.354 c
91.597 59.181 91.648 58.974 91.648 58.734 c
91.648 58.483 91.592 58.259 91.48 58.062 c
91.363 57.865 91.195 57.702 90.976 57.574 c
90.683 57.403 90.312 57.318 89.864 57.318 c
89.437 57.318 89.083 57.401 88.8 57.566 c
88.576 57.694 88.4 57.867 88.272 58.086 c
88.149 58.294 88.085 58.513 88.08 58.742 c
88.08 58.742 89.032 58.846 89.032 58.846 c
h
89.216 61.534 m
89.259 61.454 89.325 61.387 89.416 61.334 c
89.528 61.27 89.664 61.238 89.824 61.238 c
89.984 61.238 90.12 61.27 90.232 61.334 c
90.323 61.382 90.392 61.449 90.44 61.534 c
90.488 61.619 90.515 61.723 90.52 61.846 c
90.515 61.969 90.488 62.073 90.44 62.158 c
90.392 62.243 90.323 62.313 90.232 62.366 c
90.141 62.419 90.032 62.451 89.904 62.462 c
89.904 62.462 89.824 62.462 89.824 62.462 c
89.664 62.462 89.528 62.43 89.416 62.366 c
89.325 62.313 89.259 62.243 89.216 62.158 c
89.163 62.073 89.136 61.969 89.136 61.846 c
89.136 61.723 89.163 61.619 89.216 61.534 c
h
f
n
93.328 64.854 m
93.376 64.939 93.443 65.006 93.528 65.054 c
93.624 65.113 93.741 65.142 93.88 65.142 c
94.019 65.142 94.136 65.113 94.232 65.054 c
94.317 65.006 94.384 64.939 94.432 64.854 c
94.491 64.758 94.52 64.641 94.52 64.502 c
94.52 64.363 94.491 64.246 94.432 64.15 c
94.384 64.065 94.317 63.998 94.232 63.95 c
94.136 63.891 94.019 63.862 93.88 63.862 c
93.741 63.862 93.624 63.891 93.528 63.95 c
93.443 63.998 93.376 64.065 93.328 64.15 c
93.269 64.246 93.24 64.363 93.24 64.502 c
93.24 64.641 93.269 64.758 93.328 64.854 c
h
92.48 59.886 m
92.48 59.886 93.456 59.886 93.456 59.886 c
93.456 59.886 93.456 62.398 93.456 62.398 c
93.456 62.398 92.592 62.398 92.592 62.398 c
92.592 62.398 92.592 63.262 92.592 63.262 c
92.592 63.262 94.416 63.262 94.416 63.262 c
94.416 63.262 94.416 59.886 94.416 59.886 c
94.416 59.886 95.28 59.886 95.28 59.886 c
95.28 59.886 95.28 59.022 95.28 59.022 c
95.28 59.022 92.48 59.022 92.48 59.022 c
92.48 59.022 92.48 59.886 92.48 59.886 c
h
f
n
96.24 63.262 m
96.24 63.262 97.2 63.262 97.2 63.262 c
97.2 63.262 97.2 62.734 97.2 62.734 c
97.323 62.931 97.472 63.081 97.648 63.182 c
97.808 63.278 97.997 63.326 98.216 63.326 c
98.435 63.326 98.627 63.278 98.792 63.182 c
98.973 63.075 99.125 62.918 99.248 62.71 c
99.429 62.395 99.52 61.993 99.52 61.502 c
99.52 61.502 99.52 59.022 99.52 59.022 c
99.52 59.022 98.56 59.022 98.56 59.022 c
98.56 59.022 98.56 61.502 98.56 61.502 c
98.56 61.763 98.512 61.977 98.416 62.142 c
98.352 62.249 98.272 62.331 98.176 62.39 c
98.091 62.438 97.992 62.462 97.88 62.462 c
97.768 62.462 97.669 62.438 97.584 62.39 c
97.488 62.331 97.408 62.249 97.344 62.142 c
97.248 61.977 97.2 61.763 97.2 61.502 c
97.2 61.502 97.2 59.022 97.2 59.022 c
97.2 59.022 96.24 59.022 96.24 59.022 c
96.24 59.022 96.24 63.262 96.24 63.262 c
h
f
n
100.24 59.062 m
100.24 59.27 100.376 59.609 100.648 60.078 c
100.712 60.195 100.757 60.27 100.784 60.302 c
100.784 60.302 101.328 61.142 101.328 61.142 c
101.328 61.142 100.784 61.982 100.784 61.982 c
100.757 62.014 100.712 62.089 100.648 62.206 c
100.376 62.675 100.24 63.014 100.24 63.222 c
100.24 63.222 100.24 63.262 100.24 63.262 c
100.24 63.262 101.2 63.262 101.2 63.262 c
101.2 63.262 101.2 63.222 101.2 63.222 c
101.2 63.105 101.328 62.846 101.584 62.446 c
101.584 62.446 101.88 61.99 101.88 61.99 c
101.88 61.99 102.176 62.446 102.176 62.446 c
102.432 62.846 102.56 63.105 102.56 63.222 c
102.56 63.222 102.56 63.262 102.56 63.262 c
102.56 63.262 103.52 63.262 103.52 63.262 c
103.52 63.262 103.52 63.222 103.52 63.222 c
103.52 63.014 103.384 62.675 103.112 62.206 c
103.048 62.089 103.003 62.014 102.976 61.982 c
102.976 61.982 102.432 61.142 102.432 61.142 c
102.432 61.142 102.976 60.302 102.976 60.302 c
103.003 60.27 103.048 60.195 103.112 60.078 c
103.384 59.609 103.52 59.27 103.52 59.062 c
103.52 59.062 103.52 59.022 103.52 59.022 c
103.52 59.022 102.56 59.022 102.56 59.022 c
102.56 59.022 102.56 59.062 102.56 59.062 c
102.56 59.179 102.432 59.438 102.176 59.838 c
102.176 59.838 101.88 60.294 101.88 60.294 c
101.88 60.294 101.584 59.838 101.584 59.838 c
101.328 59.438 101.2 59.179 101.2 59.062 c
101.2 59.062 101.2 59.022 101.2 59.022 c
101.2 59.022 100.24 59.022 100.24 59.022 c
100.24 59.022 100.24 59.062 100.24 59.062 c
h
f
n
91.136 53.411 m
91.136 53.411 86.336 53.411 86.336 53.411 c
86.336 53.411 86.336 48.611 86.336 48.611 c
86.336 48.611 91.136 48.611 91.136 48.611 c
91.136 48.611 91.136 53.411 91.136 53.411 c
h
1 w
S
n
97.856 35.171 m
97.856 35.171 93.056 35.171 93.056 35.171 c
93.056 35.171 93.056 30.371 93.056 30.371 c
93.056 30.371 97.856 30.371 97.856 30.371 c
97.856 30.371 97.856 35.171 97.856 35.171 c
h
S
n
97.616 43.702 m
97.616 43.702 92.816 43.702 92.816 43.702 c
92.816 43.702 92.816 38.902 92.816 38.902 c
92.816 38.902 97.616 38.902 97.616 38.902 c
97.616 38.902 97.616 43.702 97.616 43.702 c
h
S
n
88.736 48.611 m
88.736 48.611 88.736 32.291 88.736 32.291 c
88.736 32.291 93.056 32.291 93.056 32.291 c
S
n
92.816 41.302 m
92.816 41.302 88.736 41.302 88.736 41.302 c
S
n
133.92 66.939 m
133.92 66.939 81.84 66.939 81.84 66.939 c
81.84 66.939 81.84 16.843 81.84 16.843 c
81.84 16.843 133.92 16.843 133.92 16.843 c
133.92 16.843 133.92 66.939 133.92 66.939 c
h
2 w
S
n
205.873 67.179 m
205.873 67.179 153.793 67.179 153.793 67.179 c
153.793 67.179 153.793 17.083 153.793 17.083 c
153.793 17.083 205.873 17.083 205.873 17.083 c
205.873 17.083 205.873 67.179 205.873 67.179 c
h
1 1 1 sc
f*
n
156.129 61.022 m
156.129 61.022 156.129 61.742 156.129 61.742 c
156.129 62.147 156.212 62.494 156.377 62.782 c
156.516 63.022 156.703 63.209 156.937 63.342 c
157.193 63.491 157.497 63.566 157.849 63.566 c
158.201 63.566 158.503 63.491 158.753 63.342 c
158.988 63.209 159.175 63.022 159.313 62.782 c
159.409 62.622 159.476 62.449 159.513 62.262 c
159.513 62.262 158.593 62.014 158.593 62.014 c
158.572 62.137 158.532 62.246 158.473 62.342 c
158.409 62.459 158.321 62.55 158.209 62.614 c
158.108 62.673 157.988 62.702 157.849 62.702 c
157.711 62.702 157.589 62.673 157.485 62.614 c
157.381 62.555 157.295 62.467 157.225 62.35 c
157.135 62.185 157.089 61.982 157.089 61.742 c
157.089 61.742 157.089 61.022 157.089 61.022 c
157.089 60.782 157.135 60.579 157.225 60.414 c
157.295 60.297 157.381 60.209 157.485 60.15 c
157.589 60.091 157.711 60.062 157.849 60.062 c
157.988 60.062 158.108 60.091 158.209 60.15 c
158.321 60.214 158.409 60.305 158.473 60.422 c
158.532 60.518 158.572 60.627 158.593 60.75 c
158.593 60.75 159.513 60.502 159.513 60.502 c
159.476 60.315 159.409 60.142 159.313 59.982 c
159.175 59.742 158.988 59.555 158.753 59.422 c
158.503 59.273 158.201 59.198 157.849 59.198 c
157.497 59.198 157.193 59.273 156.937 59.422 c
156.703 59.555 156.516 59.742 156.377 59.982 c
156.212 60.27 156.129 60.617 156.129 61.022 c
h
0 0 0 sc
f
n
160.985 59.086 m
160.985 58.974 161.015 58.87 161.073 58.774 c
161.127 58.678 161.207 58.598 161.313 58.534 c
161.447 58.459 161.615 58.422 161.817 58.422 c
162.047 58.422 162.233 58.465 162.377 58.55 c
162.468 58.603 162.535 58.667 162.577 58.742 c
162.62 58.806 162.641 58.881 162.641 58.966 c
162.641 59.067 162.609 59.153 162.545 59.222 c
162.433 59.329 162.268 59.382 162.049 59.382 c
162.049 59.382 161.617 59.382 161.617 59.382 c
161.228 59.382 160.935 59.438 160.737 59.55 c
160.588 59.641 160.471 59.758 160.385 59.902 c
160.305 60.046 160.263 60.203 160.257 60.374 c
160.263 60.55 160.311 60.718 160.401 60.878 c
160.439 60.942 160.481 61.001 160.529 61.054 c
160.444 61.139 160.372 61.233 160.313 61.334 c
160.191 61.547 160.129 61.799 160.129 62.09 c
160.129 62.381 160.191 62.633 160.313 62.846 c
160.431 63.049 160.596 63.211 160.809 63.334 c
161.076 63.489 161.399 63.566 161.777 63.566 c
161.98 63.566 162.167 63.545 162.337 63.502 c
162.337 63.502 163.625 63.502 163.625 63.502 c
163.625 63.502 163.625 62.638 163.625 62.638 c
163.625 62.638 163.337 62.646 163.337 62.646 c
163.396 62.481 163.428 62.294 163.433 62.086 c
163.428 61.793 163.364 61.542 163.241 61.334 c
163.129 61.126 162.964 60.961 162.745 60.838 c
162.484 60.689 162.161 60.614 161.777 60.614 c
161.553 60.614 161.351 60.638 161.169 60.686 c
161.132 60.643 161.113 60.593 161.113 60.534 c
161.119 60.465 161.145 60.406 161.193 60.358 c
161.268 60.283 161.407 60.246 161.609 60.246 c
161.609 60.246 162.049 60.246 162.049 60.246 c
162.428 60.246 162.748 60.171 163.009 60.022 c
163.201 59.91 163.348 59.767 163.449 59.594 c
163.551 59.421 163.601 59.214 163.601 58.974 c
163.601 58.723 163.545 58.499 163.433 58.302 c
163.316 58.105 163.148 57.942 162.929 57.814 c
162.636 57.643 162.265 57.558 161.817 57.558 c
161.391 57.558 161.036 57.641 160.753 57.806 c
160.529 57.934 160.353 58.107 160.225 58.326 c
160.103 58.534 160.039 58.753 160.033 58.982 c
160.033 58.982 160.985 59.086 160.985 59.086 c
h
161.169 61.774 m
161.212 61.694 161.279 61.627 161.369 61.574 c
161.481 61.51 161.617 61.478 161.777 61.478 c
161.937 61.478 162.073 61.51 162.185 61.574 c
162.276 61.622 162.345 61.689 162.393 61.774 c
162.441 61.859 162.468 61.963 162.473 62.086 c
162.468 62.209 162.441 62.313 162.393 62.398 c
162.345 62.483 162.276 62.553 162.185 62.606 c
162.095 62.659 161.985 62.691 161.857 62.702 c
161.857 62.702 161.777 62.702 161.777 62.702 c
161.617 62.702 161.481 62.67 161.369 62.606 c
161.279 62.553 161.212 62.483 161.169 62.398 c
161.116 62.313 161.089 62.209 161.089 62.086 c
161.089 61.963 161.116 61.859 161.169 61.774 c
h
f
n
164.193 63.502 m
164.193 63.502 165.153 63.502 165.153 63.502 c
165.153 63.502 165.153 62.974 165.153 62.974 c
165.276 63.171 165.425 63.321 165.601 63.422 c
165.761 63.518 165.951 63.566 166.169 63.566 c
166.388 63.566 166.58 63.518 166.745 63.422 c
166.927 63.315 167.079 63.158 167.201 62.95 c
167.383 62.635 167.473 62.233 167.473 61.742 c
167.473 61.742 167.473 59.262 167.473 59.262 c
167.473 59.262 166.513 59.262 166.513 59.262 c
166.513 59.262 166.513 61.742 166.513 61.742 c
166.513 62.003 166.465 62.217 166.369 62.382 c
166.305 62.489 166.225 62.571 166.129 62.63 c
166.044 62.678 165.945 62.702 165.833 62.702 c
165.721 62.702 165.623 62.678 165.537 62.63 c
165.441 62.571 165.361 62.489 165.297 62.382 c
165.201 62.217 165.153 62.003 165.153 61.742 c
165.153 61.742 165.153 59.262 165.153 59.262 c
165.153 59.262 164.193 59.262 164.193 59.262 c
164.193 59.262 164.193 63.502 164.193 63.502 c
h
f
n
168.377 62.79 m
168.516 63.03 168.703 63.217 168.937 63.35 c
169.188 63.494 169.487 63.566 169.833 63.566 c
170.18 63.566 170.479 63.494 170.729 63.35 c
170.964 63.217 171.151 63.03 171.289 62.79 c
171.455 62.502 171.537 62.153 171.537 61.742 c
171.537 61.742 171.537 60.95 171.537 60.95 c
171.537 60.95 169.089 60.95 169.089 60.95 c
169.1 60.747 169.145 60.577 169.225 60.438 c
169.295 60.315 169.385 60.222 169.497 60.158 c
169.609 60.094 169.74 60.062 169.889 60.062 c
170.049 60.062 170.188 60.097 170.305 60.166 c
170.417 60.23 170.508 60.321 170.577 60.438 c
170.609 60.502 170.636 60.566 170.657 60.63 c
170.657 60.63 171.545 60.302 171.545 60.302 c
171.508 60.195 171.463 60.094 171.409 59.998 c
171.271 59.758 171.081 59.569 170.841 59.43 c
170.575 59.275 170.257 59.198 169.889 59.198 c
169.521 59.198 169.207 59.275 168.945 59.43 c
168.705 59.569 168.516 59.758 168.377 59.998 c
168.212 60.281 168.129 60.622 168.129 61.022 c
168.129 61.022 168.129 61.742 168.129 61.742 c
168.129 62.153 168.212 62.502 168.377 62.79 c
h
170.577 61.814 m
170.567 62.027 170.521 62.206 170.441 62.35 c
170.367 62.467 170.279 62.555 170.177 62.614 c
170.081 62.673 169.967 62.702 169.833 62.702 c
169.7 62.702 169.585 62.673 169.489 62.614 c
169.388 62.555 169.3 62.467 169.225 62.35 c
169.145 62.206 169.1 62.027 169.089 61.814 c
169.089 61.814 170.577 61.814 170.577 61.814 c
h
f
n
172.225 63.502 m
172.225 63.502 172.953 63.502 172.953 63.502 c
172.953 63.502 172.953 65.142 172.953 65.142 c
172.953 65.142 173.913 65.142 173.913 65.142 c
173.913 65.142 173.913 63.502 173.913 63.502 c
173.913 63.502 175.025 63.502 175.025 63.502 c
175.025 63.502 175.025 62.638 175.025 62.638 c
175.025 62.638 173.913 62.638 173.913 62.638 c
173.913 62.638 173.913 60.982 173.913 60.982 c
173.913 60.694 173.961 60.467 174.057 60.302 c
174.105 60.217 174.164 60.153 174.233 60.11 c
174.292 60.078 174.357 60.062 174.429 60.062 c
174.501 60.062 174.564 60.078 174.617 60.11 c
174.687 60.153 174.751 60.219 174.809 60.31 c
174.879 60.438 174.924 60.59 174.945 60.766 c
174.945 60.766 175.857 60.502 175.857 60.502 c
175.82 60.278 175.748 60.073 175.641 59.886 c
175.513 59.662 175.347 59.491 175.141 59.374 c
174.936 59.257 174.696 59.198 174.421 59.198 c
174.147 59.198 173.911 59.257 173.713 59.374 c
173.505 59.491 173.337 59.662 173.209 59.886 c
173.039 60.179 172.953 60.545 172.953 60.982 c
172.953 60.982 172.953 62.638 172.953 62.638 c
172.953 62.638 172.225 62.638 172.225 62.638 c
172.225 62.638 172.225 63.502 172.225 63.502 c
h
f
n
205.873 67.179 m
205.873 67.179 153.793 67.179 153.793 67.179 c
153.793 67.179 153.793 17.083 153.793 17.083 c
153.793 17.083 205.873 17.083 205.873 17.083 c
205.873 17.083 205.873 67.179 205.873 67.179 c
h
S
n
186.701 69.226 m
186.701 69.226 186.406 69.226 186.406 69.226 c
186.406 69.226 186.406 151.88 186.406 151.88 c
186.406 151.88 184.789 150.262 184.789 150.262 c
184.789 150.262 184.581 150.471 184.581 150.471 c
184.581 150.471 186.553 152.443 186.553 152.443 c
186.553 152.443 188.526 150.471 188.526 150.471 c
188.526 150.471 188.318 150.262 188.318 150.262 c
188.318 150.262 186.701 151.88 186.701 151.88 c
186.701 151.88 186.701 69.226 186.701 69.226 c
h
q
f*
Q
1 w
S
n
119.383 73.17 m
119.383 73.17 119.197 72.941 119.197 72.941 c
119.197 72.941 75.75 108.284 75.75 108.284 c
75.75 108.284 75.984 106.009 75.984 106.009 c
75.984 106.009 75.691 105.979 75.691 105.979 c
75.691 105.979 75.406 108.754 75.406 108.754 c
75.406 108.754 78.181 109.039 78.181 109.039 c
78.181 109.039 78.211 108.746 78.211 108.746 c
78.211 108.746 75.936 108.512 75.936 108.512 c
75.936 108.512 119.383 73.17 119.383 73.17 c
h
q
f*
Q
S
n
60.038 78.365 m
60.038 78.365 59.75 78.305 59.75 78.305 c
59.75 78.305 55.021 101.003 55.021 101.003 c
55.021 101.003 53.768 99.09 53.768 99.09 c
53.768 99.09 53.521 99.251 53.521 99.251 c
53.521 99.251 55.05 101.584 55.05 101.584 c
55.05 101.584 57.384 100.056 57.384 100.056 c
57.384 100.056 57.222 99.809 57.222 99.809 c
57.222 99.809 55.309 101.063 55.309 101.063 c
55.309 101.063 60.038 78.365 60.038 78.365 c
h
q
f*
Q
S
n
75.406 143.56 m
75.406 143.56 75.406 143.855 75.406 143.855 c
75.406 143.855 167.55 143.855 167.55 143.855 c
167.55 143.855 167.55 143.56 167.55 143.56 c
167.55 143.56 75.406 143.56 75.406 143.56 c
h
q
f*
Q
S
n
167.256 143.707 m
167.256 143.707 167.55 143.707 167.55 143.707 c
167.55 143.707 167.55 69.79 167.55 69.79 c
167.55 69.79 169.167 71.407 169.167 71.407 c
169.167 71.407 169.375 71.199 169.375 71.199 c
169.375 71.199 167.403 69.226 167.403 69.226 c
167.403 69.226 165.43 71.199 165.43 71.199 c
165.43 71.199 165.639 71.407 165.639 71.407 c
165.639 71.407 167.256 69.79 167.256 69.79 c
167.256 69.79 167.256 143.707 167.256 143.707 c
h
q
f*
Q
S
n
65.156 75.522 m
63.54 75.887 61.86 75.887 60.244 75.522 c
60.244 75.522 59.906 73.736 59.906 73.736 c
59.051 73.472 58.24 73.088 57.497 72.596 c
57.497 72.596 55.865 73.45 55.865 73.45 c
54.567 72.436 53.519 71.146 52.802 69.677 c
52.802 69.677 54.013 68.303 54.013 68.303 c
53.69 67.482 53.49 66.62 53.418 65.743 c
53.418 65.743 51.72 65.022 51.72 65.022 c
51.718 63.392 52.092 61.783 52.813 60.316 c
52.813 60.316 54.661 60.39 54.661 60.39 c
55.113 59.63 55.675 58.938 56.328 58.336 c
56.328 58.336 55.844 56.583 55.844 56.583 c
57.139 55.565 58.652 54.849 60.27 54.488 c
60.27 54.488 61.363 55.954 61.363 55.954 c
62.25 55.828 63.15 55.828 64.037 55.954 c
64.037 55.954 65.13 54.488 65.13 54.488 c
66.748 54.849 68.261 55.565 69.556 56.583 c
69.556 56.583 69.072 58.336 69.072 58.336 c
69.725 58.938 70.287 59.63 70.739 60.39 c
70.739 60.39 72.587 60.316 72.587 60.316 c
73.308 61.783 73.682 63.392 73.68 65.022 c
73.68 65.022 71.982 65.743 71.982 65.743 c
71.91 66.62 71.71 67.482 71.387 68.303 c
71.387 68.303 72.598 69.677 72.598 69.677 c
71.881 71.146 70.833 72.436 69.535 73.45 c
69.535 73.45 67.903 72.596 67.903 72.596 c
67.16 73.088 66.349 73.472 65.494 73.736 c
65.494 73.736 65.156 75.522 65.156 75.522 c
h
1 1 1 sc
q
f*
Q
0 0 0 sc
S
n
132.596 75.522 m
130.98 75.887 129.3 75.887 127.684 75.522 c
127.684 75.522 127.346 73.736 127.346 73.736 c
126.491 73.472 125.68 73.088 124.937 72.596 c
124.937 72.596 123.305 73.45 123.305 73.45 c
122.007 72.436 120.959 71.146 120.242 69.677 c
120.242 69.677 121.453 68.303 121.453 68.303 c
121.13 67.482 120.93 66.62 120.858 65.743 c
120.858 65.743 119.16 65.022 119.16 65.022 c
119.158 63.392 119.532 61.783 120.253 60.316 c
120.253 60.316 122.101 60.39 122.101 60.39 c
122.553 59.63 123.115 58.938 123.768 58.336 c
123.768 58.336 123.284 56.583 123.284 56.583 c
124.579 55.565 126.092 54.849 127.71 54.488 c
127.71 54.488 128.803 55.954 128.803 55.954 c
129.69 55.828 130.59 55.828 131.477 55.954 c
131.477 55.954 132.57 54.488 132.57 54.488 c
134.188 54.849 135.701 55.565 136.996 56.583 c
136.996 56.583 136.512 58.336 136.512 58.336 c
137.165 58.938 137.727 59.63 138.179 60.39 c
138.179 60.39 140.027 60.316 140.027 60.316 c
140.748 61.783 141.122 63.392 141.12 65.022 c
141.12 65.022 139.422 65.743 139.422 65.743 c
139.35 66.62 139.15 67.482 138.827 68.303 c
138.827 68.303 140.038 69.677 140.038 69.677 c
139.321 71.146 138.273 72.436 136.975 73.45 c
136.975 73.45 135.343 72.596 135.343 72.596 c
134.6 73.088 133.789 73.472 132.934 73.736 c
132.934 73.736 132.596 75.522 132.596 75.522 c
h
1 1 1 sc
q
f*
Q
0 0 0 sc
S
n
58.6 69.45 m
58.6 69.45 59.115 69.45 59.115 69.45 c
59.115 69.45 59.115 68.287 59.115 68.287 c
59.181 68.393 59.261 68.473 59.356 68.527 c
59.442 68.579 59.545 68.604 59.665 68.604 c
59.788 68.604 59.898 68.577 59.995 68.523 c
60.098 68.463 60.183 68.374 60.249 68.257 c
60.346 68.091 60.395 67.88 60.395 67.626 c
60.395 67.626 60.395 67.239 60.395 67.239 c
60.395 66.984 60.346 66.774 60.249 66.608 c
60.183 66.491 60.098 66.402 59.995 66.342 c
59.898 66.288 59.788 66.26 59.665 66.26 c
59.545 66.26 59.442 66.286 59.356 66.338 c
59.261 66.392 59.181 66.472 59.115 66.578 c
59.115 66.578 59.115 66.295 59.115 66.295 c
59.115 66.295 58.6 66.295 58.6 66.295 c
58.6 66.295 58.6 69.45 58.6 69.45 c
h
59.193 66.896 m
59.227 66.838 59.27 66.794 59.321 66.763 c
59.367 66.737 59.422 66.724 59.485 66.724 c
59.553 66.724 59.613 66.74 59.665 66.771 c
59.719 66.803 59.766 66.85 59.807 66.913 c
59.855 67.002 59.88 67.11 59.88 67.239 c
59.88 67.239 59.88 67.626 59.88 67.626 c
59.88 67.754 59.855 67.863 59.807 67.952 c
59.766 68.015 59.719 68.062 59.665 68.093 c
59.613 68.125 59.553 68.141 59.485 68.141 c
59.422 68.141 59.367 68.128 59.321 68.102 c
59.27 68.071 59.227 68.026 59.193 67.969 c
59.141 67.88 59.115 67.766 59.115 67.626 c
59.115 67.626 59.115 67.239 59.115 67.239 c
59.115 67.099 59.141 66.984 59.193 66.896 c
h
f
n
60.747 68.57 m
60.747 68.57 61.262 68.57 61.262 68.57 c
61.262 68.57 61.262 68.287 61.262 68.287 c
61.328 68.393 61.408 68.473 61.502 68.527 c
61.588 68.579 61.691 68.604 61.811 68.604 c
61.934 68.604 62.045 68.577 62.142 68.523 c
62.245 68.463 62.329 68.374 62.395 68.257 c
62.493 68.091 62.541 67.88 62.541 67.626 c
62.541 67.626 62.541 67.239 62.541 67.239 c
62.541 66.984 62.493 66.774 62.395 66.608 c
62.329 66.491 62.245 66.402 62.142 66.342 c
62.045 66.288 61.934 66.26 61.811 66.26 c
61.691 66.26 61.588 66.286 61.502 66.338 c
61.408 66.392 61.328 66.472 61.262 66.578 c
61.262 66.578 61.262 65.415 61.262 65.415 c
61.262 65.415 60.747 65.415 60.747 65.415 c
60.747 65.415 60.747 68.57 60.747 68.57 c
h
61.339 66.896 m
61.373 66.838 61.416 66.794 61.468 66.763 c
61.514 66.737 61.568 66.724 61.631 66.724 c
61.7 66.724 61.76 66.74 61.811 66.771 c
61.866 66.803 61.913 66.85 61.953 66.913 c
62.002 67.002 62.026 67.11 62.026 67.239 c
62.026 67.239 62.026 67.626 62.026 67.626 c
62.026 67.754 62.002 67.863 61.953 67.952 c
61.913 68.015 61.866 68.062 61.811 68.093 c
61.76 68.125 61.7 68.141 61.631 68.141 c
61.568 68.141 61.514 68.128 61.468 68.102 c
61.416 68.071 61.373 68.026 61.339 67.969 c
61.288 67.88 61.262 67.766 61.262 67.626 c
61.262 67.626 61.262 67.239 61.262 67.239 c
61.262 67.099 61.288 66.984 61.339 66.896 c
h
f
n
62.893 68.48 m
62.893 68.48 63.383 68.48 63.383 68.48 c
63.383 68.48 63.383 68.798 63.383 68.798 c
63.38 68.966 63.414 69.109 63.486 69.227 c
63.54 69.327 63.617 69.406 63.717 69.463 c
63.82 69.523 63.945 69.553 64.091 69.553 c
64.237 69.553 64.363 69.523 64.469 69.463 c
64.566 69.406 64.643 69.327 64.701 69.227 c
64.738 69.164 64.765 69.095 64.782 69.021 c
64.782 69.021 64.293 68.871 64.293 68.871 c
64.284 68.942 64.258 68.998 64.215 69.038 c
64.184 69.072 64.142 69.089 64.091 69.089 c
64.045 69.089 64.006 69.074 63.975 69.042 c
63.923 68.991 63.896 68.909 63.893 68.798 c
63.893 68.798 63.893 68.48 63.893 68.48 c
63.893 68.48 64.567 68.48 64.567 68.48 c
64.567 68.48 64.567 68.016 64.567 68.016 c
64.567 68.016 63.893 68.016 63.893 68.016 c
63.893 68.016 63.893 66.295 63.893 66.295 c
63.893 66.295 63.383 66.295 63.383 66.295 c
63.383 66.295 63.383 68.016 63.383 68.016 c
63.383 68.016 62.893 68.016 62.893 68.016 c
62.893 68.016 62.893 68.48 62.893 68.48 c
h
f
n
58.6 63.989 m
58.6 63.989 59.115 63.989 59.115 63.989 c
59.115 63.989 59.115 63.706 59.115 63.706 c
59.181 63.812 59.261 63.892 59.356 63.946 c
59.442 63.998 59.545 64.024 59.665 64.024 c
59.788 64.024 59.898 63.997 59.995 63.942 c
60.098 63.882 60.183 63.793 60.249 63.676 c
60.346 63.51 60.395 63.3 60.395 63.045 c
60.395 63.045 60.395 62.659 60.395 62.659 c
60.395 62.404 60.346 62.193 60.249 62.028 c
60.183 61.91 60.098 61.821 59.995 61.761 c
59.898 61.707 59.788 61.68 59.665 61.68 c
59.545 61.68 59.442 61.706 59.356 61.757 c
59.261 61.811 59.181 61.892 59.115 61.997 c
59.115 61.997 59.115 60.834 59.115 60.834 c
59.115 60.834 58.6 60.834 58.6 60.834 c
58.6 60.834 58.6 63.989 58.6 63.989 c
h
59.193 62.315 m
59.227 62.258 59.27 62.214 59.321 62.182 c
59.367 62.156 59.422 62.143 59.485 62.143 c
59.553 62.143 59.613 62.159 59.665 62.191 c
59.719 62.222 59.766 62.269 59.807 62.332 c
59.855 62.421 59.88 62.53 59.88 62.659 c
59.88 62.659 59.88 63.045 59.88 63.045 c
59.88 63.174 59.855 63.282 59.807 63.371 c
59.766 63.434 59.719 63.481 59.665 63.513 c
59.613 63.544 59.553 63.56 59.485 63.56 c
59.422 63.56 59.367 63.547 59.321 63.521 c
59.27 63.49 59.227 63.446 59.193 63.388 c
59.141 63.3 59.115 63.185 59.115 63.045 c
59.115 63.045 59.115 62.659 59.115 62.659 c
59.115 62.518 59.141 62.404 59.193 62.315 c
h
f
n
60.961 63.989 m
60.961 63.989 61.477 63.989 61.477 63.989 c
61.477 63.989 61.477 63.59 61.477 63.59 c
61.494 63.63 61.512 63.667 61.532 63.702 c
61.598 63.816 61.678 63.901 61.773 63.955 c
61.85 64.001 61.94 64.024 62.043 64.024 c
62.149 64.024 62.247 63.997 62.337 63.944 c
62.427 63.891 62.5 63.818 62.554 63.723 c
62.58 63.677 62.6 63.63 62.614 63.582 c
62.614 63.582 62.133 63.354 62.133 63.354 c
62.116 63.403 62.09 63.446 62.056 63.483 c
62.005 63.534 61.94 63.56 61.863 63.56 c
61.806 63.56 61.756 63.547 61.713 63.521 c
61.658 63.49 61.612 63.441 61.575 63.375 c
61.509 63.261 61.477 63.109 61.477 62.92 c
61.477 62.92 61.477 61.714 61.477 61.714 c
61.477 61.714 60.961 61.714 60.961 61.714 c
60.961 61.714 60.961 63.989 60.961 63.989 c
h
f
n
62.992 63.607 m
63.066 63.736 63.167 63.836 63.292 63.908 c
63.427 63.985 63.587 64.024 63.773 64.024 c
63.959 64.024 64.12 63.985 64.254 63.908 c
64.38 63.836 64.48 63.736 64.555 63.607 c
64.643 63.453 64.688 63.265 64.688 63.045 c
64.688 63.045 64.688 62.659 64.688 62.659 c
64.688 62.438 64.643 62.251 64.555 62.096 c
64.48 61.967 64.38 61.867 64.254 61.796 c
64.12 61.718 63.959 61.68 63.773 61.68 c
63.587 61.68 63.427 61.718 63.292 61.796 c
63.167 61.867 63.066 61.967 62.992 62.096 c
62.903 62.251 62.859 62.438 62.859 62.659 c
62.859 62.659 62.859 63.045 62.859 63.045 c
62.859 63.265 62.903 63.453 62.992 63.607 c
h
63.447 62.332 m
63.487 62.269 63.534 62.222 63.589 62.191 c
63.64 62.159 63.702 62.143 63.773 62.143 c
63.845 62.143 63.906 62.159 63.958 62.191 c
64.012 62.222 64.059 62.269 64.1 62.332 c
64.148 62.421 64.172 62.53 64.172 62.659 c
64.172 62.659 64.172 63.045 64.172 63.045 c
64.172 63.174 64.148 63.282 64.1 63.371 c
64.059 63.434 64.012 63.481 63.958 63.513 c
63.906 63.544 63.845 63.56 63.773 63.56 c
63.702 63.56 63.64 63.544 63.589 63.513 c
63.534 63.481 63.487 63.434 63.447 63.371 c
63.398 63.282 63.374 63.174 63.374 63.045 c
63.374 63.045 63.374 62.659 63.374 62.659 c
63.374 62.53 63.398 62.421 63.447 62.332 c
h
f
n
65.465 61.62 m
65.465 61.56 65.48 61.504 65.512 61.452 c
65.541 61.401 65.583 61.358 65.641 61.323 c
65.712 61.283 65.802 61.263 65.911 61.263 c
66.034 61.263 66.134 61.286 66.212 61.332 c
66.26 61.361 66.296 61.395 66.319 61.435 c
66.342 61.469 66.353 61.509 66.353 61.555 c
66.353 61.61 66.336 61.655 66.302 61.693 c
66.242 61.75 66.153 61.779 66.036 61.779 c
66.036 61.779 65.804 61.779 65.804 61.779 c
65.595 61.779 65.437 61.809 65.332 61.869 c
65.251 61.917 65.188 61.98 65.143 62.058 c
65.1 62.135 65.077 62.219 65.074 62.311 c
65.077 62.405 65.103 62.495 65.151 62.581 c
65.171 62.616 65.194 62.647 65.22 62.676 c
65.174 62.722 65.136 62.772 65.104 62.826 c
65.038 62.94 65.005 63.076 65.005 63.232 c
65.005 63.388 65.038 63.523 65.104 63.637 c
65.167 63.746 65.256 63.833 65.37 63.899 c
65.513 63.982 65.686 64.024 65.89 64.024 c
65.998 64.024 66.099 64.012 66.19 63.989 c
66.19 63.989 66.881 63.989 66.881 63.989 c
66.881 63.989 66.881 63.526 66.881 63.526 c
66.881 63.526 66.727 63.53 66.727 63.53 c
66.758 63.441 66.775 63.341 66.778 63.23 c
66.775 63.072 66.741 62.938 66.675 62.826 c
66.615 62.714 66.526 62.626 66.409 62.56 c
66.269 62.48 66.096 62.44 65.89 62.44 c
65.769 62.44 65.661 62.453 65.563 62.478 c
65.543 62.455 65.533 62.428 65.533 62.397 c
65.536 62.359 65.551 62.328 65.576 62.302 c
65.616 62.262 65.691 62.242 65.8 62.242 c
65.8 62.242 66.036 62.242 66.036 62.242 c
66.239 62.242 66.411 62.202 66.551 62.122 c
66.654 62.062 66.733 61.985 66.787 61.892 c
66.841 61.799 66.868 61.688 66.868 61.56 c
66.868 61.425 66.838 61.305 66.778 61.199 c
66.715 61.093 66.625 61.006 66.508 60.937 c
66.35 60.846 66.152 60.8 65.911 60.8 c
65.682 60.8 65.492 60.844 65.34 60.933 c
65.22 61.001 65.126 61.094 65.057 61.212 c
64.991 61.323 64.957 61.441 64.954 61.564 c
64.954 61.564 65.465 61.62 65.465 61.62 c
h
65.563 63.062 m
65.586 63.019 65.622 62.983 65.671 62.955 c
65.731 62.92 65.804 62.903 65.89 62.903 c
65.976 62.903 66.049 62.92 66.109 62.955 c
66.157 62.981 66.194 63.016 66.22 63.062 c
66.246 63.108 66.26 63.164 66.263 63.23 c
66.26 63.295 66.246 63.351 66.22 63.397 c
66.194 63.443 66.157 63.48 66.109 63.509 c
66.06 63.537 66.001 63.554 65.933 63.56 c
65.933 63.56 65.89 63.56 65.89 63.56 c
65.804 63.56 65.731 63.543 65.671 63.509 c
65.622 63.48 65.586 63.443 65.563 63.397 c
65.535 63.351 65.52 63.295 65.52 63.23 c
65.52 63.164 65.535 63.108 65.563 63.062 c
h
f
n
126.04 69.416 m
126.04 69.416 126.555 69.416 126.555 69.416 c
126.555 69.416 126.555 68.252 126.555 68.252 c
126.621 68.358 126.701 68.438 126.796 68.493 c
126.882 68.544 126.985 68.57 127.105 68.57 c
127.228 68.57 127.338 68.543 127.435 68.488 c
127.538 68.428 127.623 68.34 127.689 68.222 c
127.786 68.056 127.835 67.846 127.835 67.591 c
127.835 67.591 127.835 67.205 127.835 67.205 c
127.835 66.95 127.786 66.74 127.689 66.574 c
127.623 66.456 127.538 66.368 127.435 66.308 c
127.338 66.253 127.228 66.226 127.105 66.226 c
126.985 66.226 126.882 66.252 126.796 66.303 c
126.701 66.358 126.621 66.438 126.555 66.544 c
126.555 66.544 126.555 66.26 126.555 66.26 c
126.555 66.26 126.04 66.26 126.04 66.26 c
126.04 66.26 126.04 69.416 126.04 69.416 c
h
126.633 66.861 m
126.667 66.804 126.71 66.76 126.761 66.728 c
126.807 66.703 126.862 66.69 126.925 66.69 c
126.993 66.69 127.053 66.705 127.105 66.737 c
127.159 66.768 127.206 66.816 127.247 66.879 c
127.295 66.967 127.32 67.076 127.32 67.205 c
127.32 67.205 127.32 67.591 127.32 67.591 c
127.32 67.72 127.295 67.829 127.247 67.917 c
127.206 67.98 127.159 68.028 127.105 68.059 c
127.053 68.091 126.993 68.106 126.925 68.106 c
126.862 68.106 126.807 68.093 126.761 68.068 c
126.71 68.036 126.667 67.992 126.633 67.935 c
126.581 67.846 126.555 67.731 126.555 67.591 c
126.555 67.591 126.555 67.205 126.555 67.205 c
126.555 67.065 126.581 66.95 126.633 66.861 c
h
f
n
128.187 68.536 m
128.187 68.536 128.702 68.536 128.702 68.536 c
128.702 68.536 128.702 68.252 128.702 68.252 c
128.768 68.358 128.848 68.438 128.942 68.493 c
129.028 68.544 129.131 68.57 129.251 68.57 c
129.374 68.57 129.485 68.543 129.582 68.488 c
129.685 68.428 129.769 68.34 129.835 68.222 c
129.933 68.056 129.981 67.846 129.981 67.591 c
129.981 67.591 129.981 67.205 129.981 67.205 c
129.981 66.95 129.933 66.74 129.835 66.574 c
129.769 66.456 129.685 66.368 129.582 66.308 c
129.485 66.253 129.374 66.226 129.251 66.226 c
129.131 66.226 129.028 66.252 128.942 66.303 c
128.848 66.358 128.768 66.438 128.702 66.544 c
128.702 66.544 128.702 65.38 128.702 65.38 c
128.702 65.38 128.187 65.38 128.187 65.38 c
128.187 65.38 128.187 68.536 128.187 68.536 c
h
128.779 66.861 m
128.813 66.804 128.856 66.76 128.908 66.728 c
128.954 66.703 129.008 66.69 129.071 66.69 c
129.14 66.69 129.2 66.705 129.251 66.737 c
129.306 66.768 129.353 66.816 129.393 66.879 c
129.442 66.967 129.466 67.076 129.466 67.205 c
129.466 67.205 129.466 67.591 129.466 67.591 c
129.466 67.72 129.442 67.829 129.393 67.917 c
129.353 67.98 129.306 68.028 129.251 68.059 c
129.2 68.091 129.14 68.106 129.071 68.106 c
129.008 68.106 128.954 68.093 128.908 68.068 c
128.856 68.036 128.813 67.992 128.779 67.935 c
128.728 67.846 128.702 67.731 128.702 67.591 c
128.702 67.591 128.702 67.205 128.702 67.205 c
128.702 67.065 128.728 66.95 128.779 66.861 c
h
f
n
130.333 68.445 m
130.333 68.445 130.823 68.445 130.823 68.445 c
130.823 68.445 130.823 68.763 130.823 68.763 c
130.82 68.932 130.854 69.075 130.926 69.192 c
130.98 69.293 131.057 69.371 131.157 69.429 c
131.26 69.489 131.385 69.519 131.531 69.519 c
131.677 69.519 131.803 69.489 131.909 69.429 c
132.006 69.371 132.083 69.293 132.141 69.192 c
132.178 69.13 132.205 69.061 132.222 68.986 c
132.222 68.986 131.733 68.836 131.733 68.836 c
131.724 68.908 131.698 68.964 131.655 69.004 c
131.624 69.038 131.582 69.055 131.531 69.055 c
131.485 69.055 131.446 69.039 131.415 69.008 c
131.363 68.956 131.336 68.875 131.333 68.763 c
131.333 68.763 131.333 68.445 131.333 68.445 c
131.333 68.445 132.007 68.445 132.007 68.445 c
132.007 68.445 132.007 67.982 132.007 67.982 c
132.007 67.982 131.333 67.982 131.333 67.982 c
131.333 67.982 131.333 66.26 131.333 66.26 c
131.333 66.26 130.823 66.26 130.823 66.26 c
130.823 66.26 130.823 67.982 130.823 67.982 c
130.823 67.982 130.333 67.982 130.333 67.982 c
130.333 67.982 130.333 68.445 130.333 68.445 c
h
f
n
126.04 63.955 m
126.04 63.955 126.555 63.955 126.555 63.955 c
126.555 63.955 126.555 63.672 126.555 63.672 c
126.621 63.778 126.701 63.858 126.796 63.912 c
126.882 63.964 126.985 63.989 127.105 63.989 c
127.228 63.989 127.338 63.962 127.435 63.908 c
127.538 63.848 127.623 63.759 127.689 63.642 c
127.786 63.476 127.835 63.265 127.835 63.011 c
127.835 63.011 127.835 62.624 127.835 62.624 c
127.835 62.37 127.786 62.159 127.689 61.993 c
127.623 61.876 127.538 61.787 127.435 61.727 c
127.338 61.673 127.228 61.645 127.105 61.645 c
126.985 61.645 126.882 61.671 126.796 61.723 c
126.701 61.777 126.621 61.857 126.555 61.963 c
126.555 61.963 126.555 60.8 126.555 60.8 c
126.555 60.8 126.04 60.8 126.04 60.8 c
126.04 60.8 126.04 63.955 126.04 63.955 c
h
126.633 62.281 m
126.667 62.224 126.71 62.179 126.761 62.148 c
126.807 62.122 126.862 62.109 126.925 62.109 c
126.993 62.109 127.053 62.125 127.105 62.156 c
127.159 62.188 127.206 62.235 127.247 62.298 c
127.295 62.387 127.32 62.495 127.32 62.624 c
127.32 62.624 127.32 63.011 127.32 63.011 c
127.32 63.139 127.295 63.248 127.247 63.337 c
127.206 63.4 127.159 63.447 127.105 63.479 c
127.053 63.51 126.993 63.526 126.925 63.526 c
126.862 63.526 126.807 63.513 126.761 63.487 c
126.71 63.456 126.667 63.411 126.633 63.354 c
126.581 63.265 126.555 63.151 126.555 63.011 c
126.555 63.011 126.555 62.624 126.555 62.624 c
126.555 62.484 126.581 62.37 126.633 62.281 c
h
f
n
128.401 63.955 m
128.401 63.955 128.917 63.955 128.917 63.955 c
128.917 63.955 128.917 63.556 128.917 63.556 c
128.934 63.596 128.952 63.633 128.972 63.667 c
129.038 63.782 129.118 63.866 129.213 63.921 c
129.29 63.966 129.38 63.989 129.483 63.989 c
129.589 63.989 129.687 63.963 129.777 63.91 c
129.867 63.857 129.94 63.783 129.994 63.689 c
130.02 63.643 130.04 63.596 130.054 63.547 c
130.054 63.547 129.573 63.32 129.573 63.32 c
129.556 63.368 129.53 63.411 129.496 63.448 c
129.445 63.5 129.38 63.526 129.303 63.526 c
129.246 63.526 129.196 63.513 129.153 63.487 c
129.098 63.456 129.052 63.407 129.015 63.341 c
128.949 63.227 128.917 63.075 128.917 62.886 c
128.917 62.886 128.917 61.68 128.917 61.68 c
128.917 61.68 128.401 61.68 128.401 61.68 c
128.401 61.68 128.401 63.955 128.401 63.955 c
h
f
n
130.432 63.573 m
130.506 63.702 130.607 63.802 130.732 63.873 c
130.867 63.951 131.027 63.989 131.213 63.989 c
131.399 63.989 131.56 63.951 131.694 63.873 c
131.82 63.802 131.92 63.702 131.995 63.573 c
132.083 63.418 132.128 63.231 132.128 63.011 c
132.128 63.011 132.128 62.624 132.128 62.624 c
132.128 62.404 132.083 62.216 131.995 62.062 c
131.92 61.933 131.82 61.833 131.694 61.761 c
131.56 61.684 131.399 61.645 131.213 61.645 c
131.027 61.645 130.867 61.684 130.732 61.761 c
130.607 61.833 130.506 61.933 130.432 62.062 c
130.343 62.216 130.299 62.404 130.299 62.624 c
130.299 62.624 130.299 63.011 130.299 63.011 c
130.299 63.231 130.343 63.418 130.432 63.573 c
h
130.887 62.298 m
130.927 62.235 130.974 62.188 131.029 62.156 c
131.08 62.125 131.142 62.109 131.213 62.109 c
131.285 62.109 131.346 62.125 131.398 62.156 c
131.452 62.188 131.499 62.235 131.54 62.298 c
131.588 62.387 131.612 62.495 131.612 62.624 c
131.612 62.624 131.612 63.011 131.612 63.011 c
131.612 63.139 131.588 63.248 131.54 63.337 c
131.499 63.4 131.452 63.447 131.398 63.479 c
131.346 63.51 131.285 63.526 131.213 63.526 c
131.142 63.526 131.08 63.51 131.029 63.479 c
130.974 63.447 130.927 63.4 130.887 63.337 c
130.838 63.248 130.814 63.139 130.814 63.011 c
130.814 63.011 130.814 62.624 130.814 62.624 c
130.814 62.495 130.838 62.387 130.887 62.298 c
h
f
n
132.905 61.585 m
132.905 61.525 132.92 61.469 132.952 61.418 c
132.981 61.366 133.023 61.323 133.081 61.289 c
133.152 61.249 133.242 61.229 133.351 61.229 c
133.474 61.229 133.574 61.252 133.652 61.298 c
133.7 61.326 133.736 61.361 133.759 61.401 c
133.782 61.435 133.793 61.475 133.793 61.521 c
133.793 61.575 133.776 61.621 133.742 61.658 c
133.682 61.716 133.593 61.744 133.476 61.744 c
133.476 61.744 133.244 61.744 133.244 61.744 c
133.035 61.744 132.877 61.774 132.772 61.834 c
132.691 61.883 132.628 61.946 132.583 62.023 c
132.54 62.1 132.517 62.185 132.514 62.276 c
132.517 62.371 132.543 62.461 132.591 62.547 c
132.611 62.581 132.634 62.613 132.66 62.641 c
132.614 62.687 132.576 62.737 132.544 62.792 c
132.478 62.906 132.445 63.041 132.445 63.197 c
132.445 63.353 132.478 63.489 132.544 63.603 c
132.607 63.712 132.696 63.799 132.81 63.865 c
132.953 63.948 133.126 63.989 133.33 63.989 c
133.438 63.989 133.539 63.978 133.63 63.955 c
133.63 63.955 134.321 63.955 134.321 63.955 c
134.321 63.955 134.321 63.491 134.321 63.491 c
134.321 63.491 134.167 63.496 134.167 63.496 c
134.198 63.407 134.215 63.307 134.218 63.195 c
134.215 63.038 134.181 62.903 134.115 62.792 c
134.055 62.68 133.966 62.591 133.849 62.525 c
133.709 62.445 133.536 62.405 133.33 62.405 c
133.209 62.405 133.101 62.418 133.003 62.444 c
132.983 62.421 132.973 62.394 132.973 62.362 c
132.976 62.325 132.991 62.294 133.016 62.268 c
133.056 62.228 133.131 62.208 133.24 62.208 c
133.24 62.208 133.476 62.208 133.476 62.208 c
133.679 62.208 133.851 62.168 133.991 62.088 c
134.094 62.028 134.173 61.951 134.227 61.858 c
134.281 61.765 134.308 61.654 134.308 61.525 c
134.308 61.391 134.278 61.271 134.218 61.165 c
134.155 61.059 134.065 60.971 133.948 60.903 c
133.79 60.811 133.592 60.765 133.351 60.765 c
133.122 60.765 132.932 60.81 132.78 60.898 c
132.66 60.967 132.566 61.06 132.497 61.177 c
132.431 61.289 132.397 61.406 132.394 61.53 c
132.394 61.53 132.905 61.585 132.905 61.585 c
h
133.003 63.028 m
133.026 62.985 133.062 62.949 133.111 62.92 c
133.171 62.886 133.244 62.869 133.33 62.869 c
133.416 62.869 133.489 62.886 133.549 62.92 c
133.597 62.946 133.634 62.982 133.66 63.028 c
133.686 63.074 133.7 63.129 133.703 63.195 c
133.7 63.261 133.686 63.317 133.66 63.363 c
133.634 63.408 133.597 63.446 133.549 63.474 c
133.5 63.503 133.441 63.52 133.373 63.526 c
133.373 63.526 133.33 63.526 133.33 63.526 c
133.244 63.526 133.171 63.509 133.111 63.474 c
133.062 63.446 133.026 63.408 133.003 63.363 c
132.975 63.317 132.96 63.261 132.96 63.195 c
132.96 63.129 132.975 63.074 133.003 63.028 c
h
f
n
72.48 171.309 m
72.48 173.059 71.059 174.48 69.309 174.48 c
69.309 174.48 23.811 174.48 23.811 174.48 c
22.061 174.48 20.64 173.059 20.64 171.309 c
20.64 171.309 20.64 112.131 20.64 112.131 c
20.64 110.381 22.061 108.96 23.811 108.96 c
23.811 108.96 69.309 108.96 69.309 108.96 c
71.059 108.96 72.48 110.381 72.48 112.131 c
72.48 112.131 72.48 171.309 72.48 171.309 c
h
1 1 1 sc
q
f*
Q
0 0 0 sc
S
n
66.96 167.709 m
66.96 169.459 65.539 170.88 63.789 170.88 c
63.789 170.88 18.291 170.88 18.291 170.88 c
16.541 170.88 15.12 169.459 15.12 167.709 c
15.12 167.709 15.12 108.531 15.12 108.531 c
15.12 106.781 16.541 105.36 18.291 105.36 c
18.291 105.36 63.789 105.36 63.789 105.36 c
65.539 105.36 66.96 106.781 66.96 108.531 c
66.96 108.531 66.96 167.709 66.96 167.709 c
h
1 1 1 sc
f*
q
n
66.96 167.709 m
66.96 169.459 65.539 170.88 63.789 170.88 c
63.789 170.88 18.291 170.88 18.291 170.88 c
16.541 170.88 15.12 169.459 15.12 167.709 c
15.12 167.709 15.12 108.531 15.12 108.531 c
15.12 106.781 16.541 105.36 18.291 105.36 c
18.291 105.36 63.789 105.36 63.789 105.36 c
65.539 105.36 66.96 106.781 66.96 108.531 c
66.96 108.531 66.96 167.709 66.96 167.709 c
h
eoclip
n
17.76 168.582 m
17.76 168.582 18.72 168.582 18.72 168.582 c
18.72 168.582 18.72 166.414 18.72 166.414 c
18.843 166.611 18.992 166.761 19.168 166.862 c
19.328 166.958 19.52 167.006 19.744 167.006 c
19.973 167.006 20.179 166.955 20.36 166.854 c
20.552 166.742 20.709 166.577 20.832 166.358 c
21.013 166.049 21.104 165.657 21.104 165.182 c
21.104 165.182 21.104 164.462 21.104 164.462 c
21.104 163.987 21.013 163.595 20.832 163.286 c
20.709 163.067 20.552 162.902 20.36 162.79 c
20.179 162.689 19.973 162.638 19.744 162.638 c
19.52 162.638 19.328 162.686 19.168 162.782 c
18.992 162.883 18.843 163.033 18.72 163.23 c
18.72 163.23 18.72 162.702 18.72 162.702 c
18.72 162.702 17.76 162.702 17.76 162.702 c
17.76 162.702 17.76 168.582 17.76 168.582 c
h
18.864 163.822 m
18.928 163.715 19.008 163.633 19.104 163.574 c
19.189 163.526 19.291 163.502 19.408 163.502 c
19.536 163.502 19.648 163.531 19.744 163.59 c
19.845 163.649 19.933 163.737 20.008 163.854 c
20.099 164.019 20.144 164.222 20.144 164.462 c
20.144 164.462 20.144 165.182 20.144 165.182 c
20.144 165.422 20.099 165.625 20.008 165.79 c
19.933 165.907 19.845 165.995 19.744 166.054 c
19.648 166.113 19.536 166.142 19.408 166.142 c
19.291 166.142 19.189 166.118 19.104 166.07 c
19.008 166.011 18.928 165.929 18.864 165.822 c
18.768 165.657 18.72 165.443 18.72 165.182 c
18.72 165.182 18.72 164.462 18.72 164.462 c
18.72 164.201 18.768 163.987 18.864 163.822 c
h
0 0 0 sc
f
n
21.76 166.942 m
21.76 166.942 22.72 166.942 22.72 166.942 c
22.72 166.942 22.72 166.414 22.72 166.414 c
22.843 166.611 22.992 166.761 23.168 166.862 c
23.328 166.958 23.52 167.006 23.744 167.006 c
23.973 167.006 24.179 166.955 24.36 166.854 c
24.552 166.742 24.709 166.577 24.832 166.358 c
25.013 166.049 25.104 165.657 25.104 165.182 c
25.104 165.182 25.104 164.462 25.104 164.462 c
25.104 163.987 25.013 163.595 24.832 163.286 c
24.709 163.067 24.552 162.902 24.36 162.79 c
24.179 162.689 23.973 162.638 23.744 162.638 c
23.52 162.638 23.328 162.686 23.168 162.782 c
22.992 162.883 22.843 163.033 22.72 163.23 c
22.72 163.23 22.72 161.062 22.72 161.062 c
22.72 161.062 21.76 161.062 21.76 161.062 c
21.76 161.062 21.76 166.942 21.76 166.942 c
h
22.864 163.822 m
22.928 163.715 23.008 163.633 23.104 163.574 c
23.189 163.526 23.291 163.502 23.408 163.502 c
23.536 163.502 23.648 163.531 23.744 163.59 c
23.845 163.649 23.933 163.737 24.008 163.854 c
24.099 164.019 24.144 164.222 24.144 164.462 c
24.144 164.462 24.144 165.182 24.144 165.182 c
24.144 165.422 24.099 165.625 24.008 165.79 c
23.933 165.907 23.845 165.995 23.744 166.054 c
23.648 166.113 23.536 166.142 23.408 166.142 c
23.291 166.142 23.189 166.118 23.104 166.07 c
23.008 166.011 22.928 165.929 22.864 165.822 c
22.768 165.657 22.72 165.443 22.72 165.182 c
22.72 165.182 22.72 164.462 22.72 164.462 c
22.72 164.201 22.768 163.987 22.864 163.822 c
h
f
n
25.76 166.774 m
25.76 166.774 26.672 166.774 26.672 166.774 c
26.672 166.774 26.672 167.366 26.672 167.366 c
26.667 167.681 26.731 167.947 26.864 168.166 c
26.965 168.353 27.109 168.499 27.296 168.606 c
27.488 168.718 27.72 168.774 27.992 168.774 c
28.264 168.774 28.499 168.718 28.696 168.606 c
28.877 168.499 29.021 168.353 29.128 168.166 c
29.197 168.049 29.248 167.921 29.28 167.782 c
29.28 167.782 28.368 167.502 28.368 167.502 c
28.352 167.635 28.304 167.739 28.224 167.814 c
28.165 167.878 28.088 167.91 27.992 167.91 c
27.907 167.91 27.835 167.881 27.776 167.822 c
27.68 167.726 27.629 167.574 27.624 167.366 c
27.624 167.366 27.624 166.774 27.624 166.774 c
27.624 166.774 28.88 166.774 28.88 166.774 c
28.88 166.774 28.88 165.91 28.88 165.91 c
28.88 165.91 27.624 165.91 27.624 165.91 c
27.624 165.91 27.624 162.702 27.624 162.702 c
27.624 162.702 26.672 162.702 26.672 162.702 c
26.672 162.702 26.672 165.91 26.672 165.91 c
26.672 165.91 25.76 165.91 25.76 165.91 c
25.76 165.91 25.76 166.774 25.76 166.774 c
h
f
n
33.696 166.942 m
33.696 166.942 34.552 166.942 34.552 166.942 c
34.552 166.942 34.552 166.702 34.552 166.702 c
34.616 166.803 34.693 166.881 34.784 166.934 c
34.869 166.982 34.964 167.006 35.068 167.006 c
35.172 167.006 35.269 166.982 35.36 166.934 c
35.467 166.87 35.555 166.774 35.624 166.646 c
35.656 166.593 35.685 166.531 35.712 166.462 c
35.739 166.537 35.768 166.603 35.8 166.662 c
35.875 166.79 35.963 166.881 36.064 166.934 c
36.144 166.982 36.237 167.006 36.344 167.006 c
36.451 167.006 36.547 166.982 36.632 166.934 c
36.739 166.87 36.829 166.774 36.904 166.646 c
37.037 166.411 37.104 166.099 37.104 165.71 c
37.104 165.71 37.104 162.702 37.104 162.702 c
37.104 162.702 36.248 162.702 36.248 162.702 c
36.248 162.702 36.248 165.71 36.248 165.71 c
36.248 165.955 36.208 166.118 36.128 166.198 c
36.101 166.225 36.072 166.238 36.04 166.238 c
36.008 166.238 35.976 166.225 35.944 166.198 c
35.864 166.113 35.827 165.95 35.832 165.71 c
35.832 165.71 35.832 162.702 35.832 162.702 c
35.832 162.702 34.968 162.702 34.968 162.702 c
34.968 162.702 34.968 165.71 34.968 165.71 c
34.973 165.95 34.936 166.113 34.856 166.198 c
34.824 166.225 34.792 166.238 34.76 166.238 c
34.728 166.238 34.699 166.225 34.672 166.198 c
34.592 166.118 34.552 165.955 34.552 165.71 c
34.552 165.71 34.552 162.702 34.552 162.702 c
34.552 162.702 33.696 162.702 33.696 162.702 c
33.696 162.702 33.696 166.942 33.696 166.942 c
h
f
n
37.696 163.958 m
37.696 164.214 37.749 164.433 37.856 164.614 c
37.968 164.817 38.136 164.982 38.36 165.11 c
38.68 165.291 39.083 165.382 39.568 165.382 c
39.568 165.382 40.08 165.382 40.08 165.382 c
40.08 165.382 40.08 165.558 40.08 165.558 c
40.08 165.665 40.057 165.759 40.012 165.842 c
39.967 165.925 39.899 165.99 39.808 166.038 c
39.691 166.107 39.547 166.142 39.376 166.142 c
39.205 166.142 39.061 166.11 38.944 166.046 c
38.853 165.993 38.779 165.918 38.72 165.822 c
38.688 165.763 38.667 165.705 38.656 165.646 c
38.656 165.646 37.744 165.902 37.744 165.902 c
37.771 166.03 37.819 166.153 37.888 166.27 c
38.011 166.483 38.179 166.651 38.392 166.774 c
38.659 166.929 38.987 167.006 39.376 167.006 c
39.765 167.006 40.096 166.929 40.368 166.774 c
40.581 166.651 40.747 166.487 40.864 166.282 c
40.981 166.077 41.04 165.835 41.04 165.558 c
41.04 165.558 41.04 162.702 41.04 162.702 c
41.04 162.702 40.08 162.702 40.08 162.702 c
40.08 162.702 40.08 163.206 40.08 163.206 c
39.963 163.041 39.821 162.91 39.656 162.814 c
39.459 162.697 39.228 162.638 38.964 162.638 c
38.7 162.638 38.475 162.691 38.288 162.798 c
38.117 162.899 37.981 163.038 37.88 163.214 c
37.757 163.422 37.696 163.67 37.696 163.958 c
h
38.656 163.966 m
38.656 163.849 38.696 163.753 38.776 163.678 c
38.888 163.561 39.061 163.502 39.296 163.502 c
39.461 163.502 39.605 163.537 39.728 163.606 c
39.835 163.67 39.917 163.753 39.976 163.854 c
40.045 163.977 40.08 164.121 40.08 164.286 c
40.08 164.286 40.08 164.518 40.08 164.518 c
40.08 164.518 39.568 164.518 39.568 164.518 c
39.296 164.518 39.08 164.473 38.92 164.382 c
38.824 164.329 38.755 164.262 38.712 164.182 c
38.675 164.123 38.656 164.051 38.656 163.966 c
h
f
n
41.76 166.942 m
41.76 166.942 42.72 166.942 42.72 166.942 c
42.72 166.942 42.72 166.414 42.72 166.414 c
42.843 166.611 42.992 166.761 43.168 166.862 c
43.328 166.958 43.52 167.006 43.744 167.006 c
43.973 167.006 44.179 166.955 44.36 166.854 c
44.552 166.742 44.709 166.577 44.832 166.358 c
45.013 166.049 45.104 165.657 45.104 165.182 c
45.104 165.182 45.104 164.462 45.104 164.462 c
45.104 163.987 45.013 163.595 44.832 163.286 c
44.709 163.067 44.552 162.902 44.36 162.79 c
44.179 162.689 43.973 162.638 43.744 162.638 c
43.52 162.638 43.328 162.686 43.168 162.782 c
42.992 162.883 42.843 163.033 42.72 163.23 c
42.72 163.23 42.72 161.062 42.72 161.062 c
42.72 161.062 41.76 161.062 41.76 161.062 c
41.76 161.062 41.76 166.942 41.76 166.942 c
h
42.864 163.822 m
42.928 163.715 43.008 163.633 43.104 163.574 c
43.189 163.526 43.291 163.502 43.408 163.502 c
43.536 163.502 43.648 163.531 43.744 163.59 c
43.845 163.649 43.933 163.737 44.008 163.854 c
44.099 164.019 44.144 164.222 44.144 164.462 c
44.144 164.462 44.144 165.182 44.144 165.182 c
44.144 165.422 44.099 165.625 44.008 165.79 c
43.933 165.907 43.845 165.995 43.744 166.054 c
43.648 166.113 43.536 166.142 43.408 166.142 c
43.291 166.142 43.189 166.118 43.104 166.07 c
43.008 166.011 42.928 165.929 42.864 165.822 c
42.768 165.657 42.72 165.443 42.72 165.182 c
42.72 165.182 42.72 164.462 42.72 164.462 c
42.72 164.201 42.768 163.987 42.864 163.822 c
h
f
Q
n
66.96 167.709 m
66.96 169.459 65.539 170.88 63.789 170.88 c
63.789 170.88 18.291 170.88 18.291 170.88 c
16.541 170.88 15.12 169.459 15.12 167.709 c
15.12 167.709 15.12 108.531 15.12 108.531 c
15.12 106.781 16.541 105.36 18.291 105.36 c
18.291 105.36 63.789 105.36 63.789 105.36 c
65.539 105.36 66.96 106.781 66.96 108.531 c
66.96 108.531 66.96 167.709 66.96 167.709 c
h
0 0 0 sc
S
n
20.64 138.72 m
20.64 138.72 61.44 138.72 61.44 138.72 c
S
n
20.64 125.04 m
20.64 125.04 61.44 125.04 61.44 125.04 c
S
n
20.64 111.36 m
20.64 111.36 61.44 111.36 61.44 111.36 c
S
n
20.64 145.68 m
20.64 145.68 61.44 145.68 61.44 145.68 c
S
n
20.64 132 m
20.64 132 61.44 132 61.44 132 c
S
n
20.64 118.32 m
20.64 118.32 61.44 118.32 61.44 118.32 c
S
Q
showpage
end